<?xml version="1.0" standalone="no"?>
<!DOCTYPE svg PUBLIC "-//W3C//DTD SVG 20010904//EN"
 "http://www.w3.org/TR/2001/REC-SVG-20010904/DTD/svg10.dtd">
<svg version="1.0" xmlns="http://www.w3.org/2000/svg"
 width="240.000000pt" height="240.000000pt" viewBox="0 0 240.000000 240.000000"
 preserveAspectRatio="xMidYMid meet">
<metadata>
Created by potrace 1.11, written by Peter Selinger 2001-2013
</metadata>
<g transform="translate(0.000000,240.000000) scale(0.100000,-0.100000)"
fill="#000000" stroke="none">
<path d="M959 2020 c-215 -46 -352 -126 -530 -307 -166 -168 -216 -253 -282
-478 -20 -66 -21 -99 -24 -653 l-4 -583 26 3 26 3 0 445 c-1 599 7 695 71 873
15 42 24 55 30 45 6 -9 7 -6 3 8 -6 24 57 143 113 212 55 67 176 181 233 219
75 51 223 119 314 145 70 20 104 22 265 23 174 0 190 -2 275 -28 109 -34 253
-103 326 -158 146 -109 288 -291 352 -450 71 -179 76 -237 76 -926 l1 -413 31
0 32 0 -6 553 c-7 593 -9 617 -63 773 -52 151 -133 272 -276 409 -104 101
-143 131 -239 183 -87 48 -160 75 -277 103 -112 26 -349 26 -473 -1z"/>
<path d="M1358 1953 c7 -3 16 -2 19 1 4 3 -2 6 -13 5 -11 0 -14 -3 -6 -6z"/>
<path d="M1305 1880 c3 -5 14 -10 23 -10 15 0 15 2 2 10 -20 13 -33 13 -25 0z"/>
<path d="M1458 1883 c7 -3 16 -2 19 1 4 3 -2 6 -13 5 -11 0 -14 -3 -6 -6z"/>
<path d="M998 1864 c-4 -5 0 -18 8 -29 15 -20 17 -12 5 19 -4 11 -10 15 -13
10z"/>
<path d="M1370 1849 c0 -13 29 -31 42 -26 8 3 5 6 -7 7 -14 2 -11 4 10 9 l30
7 -37 5 c-21 3 -38 2 -38 -2z"/>
<path d="M1176 1823 c-9 -22 -3 -25 19 -10 15 12 16 15 2 20 -9 3 -18 -1 -21
-10z"/>
<path d="M840 1758 c0 -23 39 -83 40 -62 0 6 -7 17 -16 25 -9 7 -14 22 -11 36
2 13 0 23 -4 23 -5 0 -9 -10 -9 -22z"/>
<path d="M1097 1764 c6 -15 23 -19 23 -5 0 5 -7 11 -14 14 -10 4 -13 1 -9 -9z"/>
<path d="M999 1723 c-13 -16 -12 -17 4 -4 9 7 17 15 17 17 0 8 -8 3 -21 -13z"/>
<path d="M913 1705 c0 -8 4 -15 9 -15 4 0 8 7 8 15 0 8 -4 15 -8 15 -5 0 -9
-7 -9 -15z"/>
<path d="M771 1658 c-1 -24 -30 -38 -58 -27 -21 8 -23 7 -13 -11 6 -11 19 -20
30 -20 22 0 54 43 47 62 -4 8 -6 7 -6 -4z"/>
<path d="M1230 1644 c-82 -17 -196 -72 -249 -119 -86 -78 -162 -251 -163 -370
0 -69 35 -204 64 -247 10 -14 18 -30 18 -35 0 -6 15 -27 33 -48 17 -21 32 -43
32 -49 0 -19 39 -46 47 -33 6 9 8 9 8 0 0 -26 199 -94 274 -94 28 0 80 9 116
20 75 24 83 25 78 10 -2 -6 -7 -10 -11 -9 -4 0 -15 -6 -23 -15 -9 -8 -21 -12
-27 -8 -7 4 -6 0 1 -10 13 -15 17 -15 55 6 23 12 43 23 45 23 2 1 5 15 6 30 2
21 9 29 22 29 11 0 18 -5 17 -12 -1 -6 5 -14 13 -17 14 -5 15 -1 10 27 -4 24
-2 38 8 46 19 16 28 -1 20 -36 l-7 -28 29 30 c19 21 29 42 30 68 1 21 -2 35
-7 31 -6 -3 3 16 20 43 46 75 83 196 83 273 0 122 -75 296 -162 374 -101 91
-265 143 -380 120z"/>
<path d="M786 1589 c3 -5 21 -9 41 -9 45 0 40 6 -9 13 -21 3 -35 1 -32 -4z"/>
<path d="M800 1375 c0 -8 5 -15 10 -15 6 0 10 7 10 15 0 8 -4 15 -10 15 -5 0
-10 -7 -10 -15z"/>
<path d="M340 1371 c0 -5 8 -7 18 -4 10 2 26 -5 37 -17 20 -22 20 -22 0 -36
-28 -21 -58 -14 -65 16 -5 20 -7 21 -12 9 -8 -21 18 -59 40 -59 25 0 62 28 62
47 0 9 -10 24 -22 34 -22 20 -58 26 -58 10z"/>
<path d="M556 1275 c4 -8 8 -15 10 -15 2 0 4 7 4 15 0 8 -4 15 -10 15 -5 0 -7
-7 -4 -15z"/>
<path d="M2067 1203 c-14 -22 15 -53 48 -52 l30 1 -30 7 c-20 4 -31 14 -35 31
-4 16 -8 21 -13 13z"/>
<path d="M570 1180 c-9 -6 -10 -10 -3 -10 6 0 15 5 18 10 8 12 4 12 -15 0z"/>
<path d="M1811 1174 c0 -11 3 -14 6 -6 3 7 2 16 -1 19 -3 4 -6 -2 -5 -13z"/>
<path d="M750 1120 c0 -5 5 -10 10 -10 6 0 10 5 10 10 0 6 -4 10 -10 10 -5 0
-10 -4 -10 -10z"/>
<path d="M2017 1107 c-4 -11 -4 -24 -1 -29 4 -6 -1 -17 -11 -25 -17 -12 -17
-13 -2 -13 21 0 30 19 25 57 -2 23 -4 25 -11 10z"/>
<path d="M485 1088 c-21 -13 -25 -18 -12 -18 9 0 17 -3 17 -7 0 -5 17 -8 38
-8 30 0 38 4 40 21 4 30 -44 36 -83 12z m65 -2 c0 -2 -7 -6 -15 -10 -8 -3 -15
-1 -15 4 0 6 7 10 15 10 8 0 15 -2 15 -4z"/>
<path d="M1817 1103 c-12 -12 -7 -22 8 -17 8 4 15 10 15 15 0 11 -14 12 -23 2z"/>
<path d="M1980 1085 c-7 -9 -10 -18 -7 -21 3 -3 10 4 17 15 13 25 8 27 -10 6z"/>
<path d="M750 1068 c0 -19 2 -20 10 -8 13 19 13 30 0 30 -5 0 -10 -10 -10 -22z"/>
<path d="M785 1080 c-3 -5 1 -10 10 -10 9 0 13 5 10 10 -3 6 -8 10 -10 10 -2
0 -7 -4 -10 -10z"/>
<path d="M601 1059 c-15 -26 -6 -38 14 -18 8 8 11 19 7 26 -6 9 -11 6 -21 -8z"/>
<path d="M2070 1070 c8 -5 20 -10 25 -10 6 0 3 5 -5 10 -8 5 -19 10 -25 10 -5
0 -3 -5 5 -10z"/>
<path d="M625 1025 c-3 -8 -7 -22 -10 -30 -2 -8 0 -15 5 -15 5 0 12 9 15 20 8
25 29 26 22 1 -3 -12 0 -18 9 -17 19 3 20 14 3 37 -16 23 -38 25 -44 4z"/>
<path d="M760 1028 c0 -4 9 -23 20 -43 11 -20 20 -44 20 -55 0 -11 4 -20 9
-20 5 0 12 -8 15 -17 3 -10 3 -2 0 19 -3 23 0 38 7 40 15 5 -19 48 -38 48 -6
0 -17 8 -22 18 -6 9 -11 14 -11 10z"/>
<path d="M335 956 c-16 -8 -42 -26 -57 -42 -116 -125 -8 -331 157 -300 43 8
103 59 121 103 61 146 -83 301 -221 239z"/>
<path d="M570 941 c0 -6 5 -13 11 -16 6 -4 14 -17 19 -29 8 -20 9 -20 9 5 1
24 -15 49 -31 49 -4 0 -8 -4 -8 -9z"/>
<path d="M1857 895 c-24 -50 -20 -58 4 -12 14 26 25 37 35 33 9 -3 12 -1 9 4
-12 20 -32 9 -48 -25z"/>
<path d="M2080 913 c-106 -4 -119 -8 -113 -34 5 -18 11 -20 42 -15 20 3 55 6
79 6 32 0 42 4 42 16 0 12 7 15 25 12 17 -4 25 -1 25 8 0 8 -6 13 -12 12 -7
-1 -47 -3 -88 -5z m40 -23 c0 -5 -4 -10 -10 -10 -5 0 -10 5 -10 10 0 6 5 10
10 10 6 0 10 -4 10 -10z"/>
<path d="M575 880 c3 -5 8 -10 11 -10 2 0 4 5 4 10 0 6 -5 10 -11 10 -5 0 -7
-4 -4 -10z"/>
<path d="M1720 840 c0 -5 7 -7 15 -4 8 4 15 8 15 10 0 2 -7 4 -15 4 -8 0 -15
-4 -15 -10z"/>
<path d="M1890 830 c-8 -5 -10 -10 -5 -10 6 0 17 5 25 10 8 5 11 10 5 10 -5 0
-17 -5 -25 -10z"/>
<path d="M1704 788 l-19 -23 23 19 c21 18 27 26 19 26 -2 0 -12 -10 -23 -22z"/>
<path d="M1774 758 l-19 -23 23 19 c21 18 27 26 19 26 -2 0 -12 -10 -23 -22z"/>
<path d="M795 746 c14 -10 19 -24 17 -52 -2 -37 -1 -38 13 -20 8 11 15 25 15
30 -1 17 -37 56 -51 56 -7 0 -5 -6 6 -14z"/>
<path d="M1800 739 c0 -5 5 -7 10 -4 6 3 10 8 10 11 0 2 -4 4 -10 4 -5 0 -10
-5 -10 -11z"/>
<path d="M747 734 c-8 -8 3 -34 14 -34 5 0 9 9 9 20 0 19 -11 26 -23 14z"/>
<path d="M1731 707 c-13 -21 -12 -21 5 -5 10 10 16 20 13 22 -3 3 -11 -5 -18
-17z"/>
<path d="M1776 683 c-6 -14 -5 -15 5 -6 7 7 10 15 7 18 -3 3 -9 -2 -12 -12z"/>
<path d="M1679 657 c-9 -7 -14 -18 -12 -24 3 -7 0 -13 -5 -13 -5 0 -12 -9 -15
-20 -3 -11 -3 -20 0 -20 8 0 43 42 43 51 0 5 16 -1 35 -12 20 -12 35 -16 35
-10 0 6 -7 11 -15 11 -9 0 -21 11 -27 25 -13 28 -16 29 -39 12z"/>
<path d="M1301 620 c-16 -14 -19 -20 -8 -20 8 0 20 7 27 15 7 8 21 15 32 15
17 0 18 -3 8 -15 -8 -10 -9 -15 -2 -15 6 0 16 9 22 20 10 18 8 20 -22 20 -18
-1 -44 -10 -57 -20z"/>
<path d="M500 599 c-19 -10 -55 -19 -80 -20 -25 -1 -35 -4 -22 -6 12 -2 22 -8
22 -13 0 -5 -8 -6 -17 -3 -16 6 -16 5 -4 -10 9 -11 18 -14 25 -8 6 5 37 8 68
8 35 -1 63 4 70 12 11 10 7 12 -22 7 -19 -3 -42 -1 -50 4 -12 8 -9 10 13 10
15 0 27 5 27 10 0 6 10 15 23 20 20 8 20 9 2 8 -11 0 -36 -8 -55 -19z"/>
<path d="M766 602 c-3 -5 1 -9 9 -9 8 0 12 4 9 9 -3 4 -7 8 -9 8 -2 0 -6 -4
-9 -8z"/>
<path d="M1548 580 c-14 -10 -29 -16 -33 -12 -5 4 -5 1 -1 -5 4 -8 -5 -20 -24
-32 l-31 -19 29 -10 c21 -7 33 -7 41 1 6 6 11 8 11 3 0 -4 11 4 24 18 16 18
22 34 18 51 -5 30 -3 30 -34 5z"/>
<path d="M640 580 c0 -5 12 -10 28 -9 24 0 25 1 7 9 -27 12 -35 12 -35 0z"/>
<path d="M740 578 c0 -22 92 -32 115 -12 20 15 20 15 -1 11 -11 -2 -42 -1 -67
3 -26 4 -47 3 -47 -2z"/>
<path d="M927 568 c2 -5 28 -8 58 -8 30 0 56 3 58 8 3 4 -23 7 -58 7 -35 0
-61 -3 -58 -7z"/>
<path d="M1573 523 c-7 -2 -13 -8 -13 -13 0 -10 38 -1 46 11 6 10 -13 11 -33
2z"/>
<path d="M1676 493 c-6 -14 -5 -15 5 -6 7 7 10 15 7 18 -3 3 -9 -2 -12 -12z"/>
<path d="M1455 480 c3 -5 8 -10 11 -10 2 0 4 5 4 10 0 6 -5 10 -11 10 -5 0 -7
-4 -4 -10z"/>
<path d="M1605 480 c-3 -6 1 -7 9 -4 18 7 21 14 7 14 -6 0 -13 -4 -16 -10z"/>
<path d="M1646 475 c4 -8 8 -15 10 -15 2 0 4 7 4 15 0 8 -4 15 -10 15 -5 0 -7
-7 -4 -15z"/>
<path d="M1777 483 c-4 -3 -7 -13 -7 -22 1 -13 3 -13 11 2 11 19 8 33 -4 20z"/>
<path d="M1383 435 c-15 -19 -37 -35 -48 -35 -15 0 -17 2 -6 9 8 5 9 11 3 15
-6 3 -13 2 -17 -4 -4 -6 -17 -4 -36 5 -20 11 -29 12 -29 4 0 -8 -4 -8 -14 0
-12 10 -13 8 -9 -8 4 -17 9 -19 24 -10 13 6 19 6 19 -1 0 -5 3 -9 8 -8 4 1 28
-4 55 -11 46 -13 47 -15 47 -52 0 -32 5 -41 30 -54 31 -16 120 -21 120 -6 0
10 -27 24 -49 25 -17 1 -28 26 -11 26 6 0 8 5 5 10 -3 6 -15 10 -26 10 -10 0
-19 5 -19 10 0 6 -5 10 -11 10 -5 0 -7 -4 -4 -10 3 -5 2 -10 -4 -10 -6 0 -15
9 -21 19 -13 25 -13 34 0 26 6 -3 10 3 10 13 0 23 23 35 38 20 13 -13 28 14
17 32 -13 20 -45 9 -72 -25z"/>
<path d="M1675 410 c1 -33 -3 -60 -7 -60 -4 0 -6 -20 -5 -45 1 -29 7 -45 15
-45 33 0 101 -74 87 -94 -3 -3 0 -2 6 2 17 15 -1 56 -36 82 -19 14 -35 29 -35
33 0 5 4 6 9 3 5 -4 17 -3 28 1 15 6 13 8 -12 13 l-30 5 -3 83 c-3 94 -17 113
-17 22z"/>
<path d="M1631 444 c0 -11 3 -14 6 -6 3 7 2 16 -1 19 -3 4 -6 -2 -5 -13z"/>
<path d="M1826 407 c2 -7 14 -19 27 -26 21 -13 21 -12 -2 13 -27 29 -33 32
-25 13z"/>
<path d="M1771 354 c0 -23 6 -59 15 -80 9 -21 13 -50 10 -66 -4 -20 -1 -30 9
-34 8 -4 15 -14 15 -23 0 -14 2 -14 10 -1 9 13 10 13 10 0 0 -13 2 -13 9 -1 7
12 15 8 40 -17 17 -17 31 -38 31 -46 0 -9 4 -16 8 -16 14 0 7 -50 -8 -60 -11
-7 -7 -10 18 -10 19 0 35 6 38 14 6 15 44 10 44 -5 0 -5 7 -9 15 -9 8 0 14 5
13 11 -4 16 33 20 52 6 13 -11 13 -10 1 6 -7 9 -22 17 -32 17 -11 0 -19 5 -19
10 0 6 6 10 12 10 7 0 1 8 -12 17 -14 9 -28 21 -31 25 -3 5 -10 8 -15 7 -5 -1
-16 -1 -24 0 -13 1 -13 3 -1 10 11 7 4 12 -24 20 -22 6 -41 9 -43 7 -2 -3 -12
4 -23 15 -10 10 -25 16 -33 13 -23 -9 -37 5 -27 24 10 20 3 45 -10 37 -5 -4
-6 2 -2 11 4 11 -1 22 -12 30 -17 13 -17 14 9 14 l29 0 -31 28 c-17 15 -33 38
-35 52 -3 16 -5 10 -6 -16z m209 -258 c0 -2 3 -12 7 -21 5 -15 3 -16 -15 -6
-25 13 -29 31 -7 31 8 0 15 -2 15 -4z"/>
<path d="M303 321 c7 -42 24 -61 33 -38 3 10 -3 28 -16 44 l-22 28 5 -34z"/>
<path d="M778 342 c-24 -5 -35 -51 -17 -63 28 -18 54 -6 57 27 3 33 -9 43 -40
36z"/>
<path d="M961 341 c-21 -13 -7 -36 33 -55 47 -22 82 -18 79 9 -1 11 0 14 3 8
3 -7 12 -13 20 -13 9 0 13 4 9 9 -3 5 8 9 25 9 16 -1 30 -6 30 -11 0 -16 14 2
17 22 2 14 -4 18 -29 19 -17 0 -49 3 -72 6 -23 3 -35 3 -28 0 13 -6 17 -50 4
-58 -5 -3 -19 2 -31 11 -18 12 -20 17 -10 24 7 4 11 10 9 12 -12 11 -46 16
-59 8z"/>
<path d="M850 319 c-14 -25 2 -49 34 -49 20 1 20 2 -4 15 -14 8 -19 14 -12 15
14 0 17 40 2 40 -5 0 -14 -9 -20 -21z"/>
<path d="M1945 320 c3 -5 18 -10 32 -10 32 0 28 5 -10 14 -19 4 -26 3 -22 -4z"/>
<path d="M2023 303 c9 -2 23 -2 30 0 6 3 -1 5 -18 5 -16 0 -22 -2 -12 -5z"/>
<path d="M2108 303 c12 -2 30 -2 40 0 9 3 -1 5 -23 4 -22 0 -30 -2 -17 -4z"/>
<path d="M1188 283 c7 -3 16 -2 19 1 4 3 -2 6 -13 5 -11 0 -14 -3 -6 -6z"/>
<path d="M1733 133 c-54 -5 -65 -20 -60 -85 l3 -53 2 58 c2 46 5 57 20 58 23
2 24 2 44 -6 11 -4 20 0 28 14 6 12 9 20 8 19 -2 -1 -22 -3 -45 -5z"/>
<path d="M1798 47 c-3 -29 -1 -33 14 -29 19 4 26 32 8 32 -5 0 -7 7 -4 15 4 8
2 15 -4 15 -5 0 -12 -15 -14 -33z"/>
</g>
</svg>
